[
    {
        "name": "Breakfast food",
        "sheet": 17052185,
        "id": 100001,
        "mainPayer": "longvh",
        "totalAmount": 30,
        "payers": [
            {
                "name": "longvh",
                "amount": 25,
                "returned": 12,
                "id": 200001
            },
            {
                "name": "phuch",
                "amount": 5,
                "returned": 1,
                "id": 200002
            }
        ],
        "returners": [
            {
                "name": "phuch",
                "nickName": "co be hay quyt",
                "id": 200002,
                "weight": 1,
                "hasReturned": false,
                "amount": 6 
            },
            {
                "name": "tring",
                "nickName": "em be hay quyt",
                "weight": 0,
                "id": 200003,
                "hasReturned": true,
                "amount": 0 
            },
            {
                "name": "khaph",
                "nickName": "ba trum hay quyt",
                "weight": 1,
                "id": 200004,
                "hasReturned": true,
                "amount": 6 
            },
            {
                "name": "tuand",
                "nickName": "lame hay quyt",
                "weight": 2,
                "id": 200005,
                "hasReturned": true,
                "amount": 12 
            }
        ]
    },
    {
        "name": "Snacks",
        "sheet": 17052185,
        "id": 100002,
        "mainPayer": "khaph",
        "totalAmount": 10,
        "payers": [
            {
                "name": "khaph",
                "amount": 10,
                "returned": 10,
                "id": 200003
            }
        ],
        "returners": [
            {
                "name": "longv",
                "nickName": "cau be hay quyt",
                "id": 200001,
                "weight": 2,
                "hasReturned": false,
                "amount": 4 
            }
        ]
    }
]